{"current_page":1,"data":[{"id":256,"title":"Beloved","author":"Toni Morrison","description":"Sethe, its protagonist, was born a slave and escaped to Ohio, but eighteen years later she is still not free. She has too many memories of Sweet Home, the beautiful farm where so many hideous things happened. And Sethe\u2019s new home is haunted by the ghost of her baby, who died nameless and whose tombstone is engraved with a single word: Beloved. Filled with bitter poetry and suspense as taut as a rope, Beloved is a towering achievement.","image":"4.jpg","genre":"adventure","created_at":null,"updated_at":null},{"id":1,"title":"The Three Musketeers ","author":"Alexandre Dumas ","description":"The Three Musketeers is a novel by Alexandre Dumas. Set in the 17th century, it recounts the adventures of a young man named d`Artagnan after he leaves home to travel to Paris, to join the Musketeers of the Guard. ","image":"1.jpg","genre":"adventure","created_at":null,"updated_at":null},{"id":257,"title":"To Kill a Mockingbird ","author":"Harper Lee","description":"One of the most cherished stories of all time, To Kill a Mockingbird has been translated into more than forty languages, sold more than forty million copies worldwide, served as the basis for an enormously popular motion picture, and was voted one of the best novels of the twentieth century by librarians across the country. A gripping, heart-wrenching, and wholly remarkable tale of coming-of-age in a South poisoned by virulent prejudice, it views a world of great beauty and savage inequities through the eyes of a young girl, as her father\u2014a crusading local lawyer\u2014risks everything to defend a black man unjustly accused of a terrible crime.","image":"5.jpg","genre":"adventure","created_at":null,"updated_at":null},{"id":2,"title":"The Call of the Wild","author":"Jack London","description":"The Call of the Wild is a novel by Jack London published in 1903. The story is set in the Yukon during the 1890s Klondike Gold Rush\u2014a period in which strong sled dogs were in high demand. The novel`s central character is a dog named Buck, a domesticated dog living at a ranch in the Santa Clara Valley of California as the story opens. Stolen from his home and sold into service as sled dog in Alaska, he reverts to a wild state. Buck is forced to fight in order to dominate other dogs in a harsh climate. Eventually he sheds the veneer of civilization, relying on primordial instincts and learned experience to emerge as a leader in the wild.London lived for most of a year in the Yukon collecting material for the book. The story was serialized in the Saturday Evening Post in the summer of 1903; a month later it was released in book form. The novel`s great popularity and success made a reputation for London. Much of its appeal derives from the simplicity of this tale of survival. As early as 1908 the story was adapted to film and it has since seen several more cinematic adaptations.","image":"2.jpg","genre":"adventure","created_at":null,"updated_at":null},{"id":258,"title":"Watchmen","author":"Alan Moore","description":"Considered the greatest novel in the history of the medium, the Hugo Award-winning story chronicles the fall from grace of a group of superheroes plagued by all-too-human failings. Along the way, the concept of the superhero is dissected as an unknown assassin stalks the erstwhile heroes.","image":"6.jpg","genre":"novel","created_at":null,"updated_at":null},{"id":3,"title":"Little Women: 150th Anniversary Edition ","author":"Louisa May Alcott ","description":"For generations, children around the world have come of age with Louisa May Alcott`s March girls: hardworking eldest sister Meg, headstrong, impulsive Jo, timid Beth, and precocious Amy. With their father away at war, and their loving mother Marmee working to support the family, the four sisters have to rely on one another for support as they endure the hardships of wartime and poverty. We witness the sisters growing up and figuring out what role each wants to play in the world, and, along the way, join them on countless unforgettable adventures.","image":"3.jpg","genre":"classics","created_at":null,"updated_at":null},{"id":259,"title":"The Walking Dead: Compendium One","author":"Robert Kirkman ","description":"Introducing the first eight volumes of the fan-favorite, New York Times Best Seller series collected into one massive paperback collection! Collects The Walking Dead #1-48. This is the perfect collection for any fan of the Emmy Award-winning television series on AMC: over one thousand pages chronicling the beginning of Robert Kirkman`s Eisner Award-winning continuing story of survival horror- from Rick Grimes` waking up alone in a hospital, to him and his family seeking solace on Hershel`s farm, and the controversial introduction of Woodbury despot: The Governor. In a world ruled by the dead, we are finally forced to finally start living.","image":"7.jpg","genre":"novel","created_at":null,"updated_at":null},{"id":4,"title":"Beloved","author":"Toni Morrison","description":"Sethe, its protagonist, was born a slave and escaped to Ohio, but eighteen years later she is still not free. She has too many memories of Sweet Home, the beautiful farm where so many hideous things happened. And Sethe\u2019s new home is haunted by the ghost of her baby, who died nameless and whose tombstone is engraved with a single word: Beloved. Filled with bitter poetry and suspense as taut as a rope, Beloved is a towering achievement.","image":"4.jpg","genre":"adventure","created_at":null,"updated_at":null},{"id":260,"title":"The Boy, the Mole, the Fox and the Horse","author":"Charlie Mackesy","description":"Charlie Mackesy offers inspiration and hope in uncertain times in this beautiful book based on his famous quartet of characters. The Boy, the Mole, the Fox, and the Horse explores their unlikely friendship and the poignant, universal lessons they learn together.","image":"8.jpg","genre":"novel","created_at":null,"updated_at":null},{"id":5,"title":"To Kill a Mockingbird ","author":"Harper Lee","description":"One of the most cherished stories of all time, To Kill a Mockingbird has been translated into more than forty languages, sold more than forty million copies worldwide, served as the basis for an enormously popular motion picture, and was voted one of the best novels of the twentieth century by librarians across the country. A gripping, heart-wrenching, and wholly remarkable tale of coming-of-age in a South poisoned by virulent prejudice, it views a world of great beauty and savage inequities through the eyes of a young girl, as her father\u2014a crusading local lawyer\u2014risks everything to defend a black man unjustly accused of a terrible crime.","image":"5.jpg","genre":"adventure","created_at":null,"updated_at":null},{"id":261,"title":"The adventures of Sherlock Holmes","author":"Sir Arthur Conan Doyle","description":"The adventures of Sherlock Holmes is a collection of twelve stories written by Arthur Conan Doyle, featuring his famous detective. Venture back in time to Victorian London to join literature`s greatest detective team \u2014 the brilliant Sherlock Holmes and his devoted assistant, Dr. Watson \u2014 as they investigate a dozen of their best-known cases. Originally published in 1892, this is the first and best collection of stories about the legendary sleuth.","image":"9.jpg","genre":"detective","created_at":null,"updated_at":null},{"id":6,"title":"Watchmen","author":"Alan Moore","description":"Considered the greatest novel in the history of the medium, the Hugo Award-winning story chronicles the fall from grace of a group of superheroes plagued by all-too-human failings. Along the way, the concept of the superhero is dissected as an unknown assassin stalks the erstwhile heroes.","image":"6.jpg","genre":"novel","created_at":null,"updated_at":null},{"id":262,"title":"And Then There Were None ","author":"Agatha Christie","description":"One of the most famous and beloved mysteries from The Queen of Suspense\u2014Agatha Christie\u2014now a Lifetime TV movie.","image":"10.jpg","genre":"detective","created_at":null,"updated_at":null},{"id":7,"title":"The Walking Dead: Compendium One","author":"Robert Kirkman ","description":"Introducing the first eight volumes of the fan-favorite, New York Times Best Seller series collected into one massive paperback collection! Collects The Walking Dead #1-48. This is the perfect collection for any fan of the Emmy Award-winning television series on AMC: over one thousand pages chronicling the beginning of Robert Kirkman`s Eisner Award-winning continuing story of survival horror- from Rick Grimes` waking up alone in a hospital, to him and his family seeking solace on Hershel`s farm, and the controversial introduction of Woodbury despot: The Governor. In a world ruled by the dead, we are finally forced to finally start living.","image":"7.jpg","genre":"novel","created_at":null,"updated_at":null},{"id":263,"title":"The Water Dancer ","author":"Ta-Nehisi Coates","description":"Young Hiram Walker was born into bondage. When his mother was sold away, Hiram was robbed of all memory of her\u2014but was gifted with a mysterious power. Years later, when Hiram almost drowns in a river, that same power saves his life. This brush with death births an urgency in Hiram and a daring scheme: to escape from the only home he\u2019s ever known.","image":"11.jpg","genre":"detective","created_at":null,"updated_at":null},{"id":8,"title":"The Boy, the Mole, the Fox and the Horse","author":"Charlie Mackesy","description":"Charlie Mackesy offers inspiration and hope in uncertain times in this beautiful book based on his famous quartet of characters. The Boy, the Mole, the Fox, and the Horse explores their unlikely friendship and the poignant, universal lessons they learn together.","image":"8.jpg","genre":"novel","created_at":null,"updated_at":null},{"id":264,"title":"The Night Fire","author":"Michael Connelly","description":"Back when Harry Bosch was just a rookie homicide detective, he had an inspiring mentor who taught him to take the work personally and light the fire of relentlessness for every case. Now that mentor, John Jack Thompson, is dead, and his widow gives Bosch a murder book, one that Thompson took with him when he left the LAPD twenty years before -- the unsolved killing of a troubled young man.","image":"12.jpg","genre":"fantasy","created_at":null,"updated_at":null},{"id":9,"title":"The adventures of Sherlock Holmes","author":"Sir Arthur Conan Doyle","description":"The adventures of Sherlock Holmes is a collection of twelve stories written by Arthur Conan Doyle, featuring his famous detective. Venture back in time to Victorian London to join literature`s greatest detective team \u2014 the brilliant Sherlock Holmes and his devoted assistant, Dr. Watson \u2014 as they investigate a dozen of their best-known cases. Originally published in 1892, this is the first and best collection of stories about the legendary sleuth.","image":"9.jpg","genre":"detective","created_at":null,"updated_at":null},{"id":265,"title":"The Three Musketeers ","author":"Alexandre Dumas ","description":"The Three Musketeers is a novel by Alexandre Dumas. Set in the 17th century, it recounts the adventures of a young man named d`Artagnan after he leaves home to travel to Paris, to join the Musketeers of the Guard. ","image":"1.jpg","genre":"adventure","created_at":null,"updated_at":null},{"id":10,"title":"And Then There Were None ","author":"Agatha Christie","description":"One of the most famous and beloved mysteries from The Queen of Suspense\u2014Agatha Christie\u2014now a Lifetime TV movie.","image":"10.jpg","genre":"detective","created_at":null,"updated_at":null},{"id":266,"title":"The Call of the Wild","author":"Jack London","description":"The Call of the Wild is a novel by Jack London published in 1903. The story is set in the Yukon during the 1890s Klondike Gold Rush\u2014a period in which strong sled dogs were in high demand. The novel`s central character is a dog named Buck, a domesticated dog living at a ranch in the Santa Clara Valley of California as the story opens. Stolen from his home and sold into service as sled dog in Alaska, he reverts to a wild state. Buck is forced to fight in order to dominate other dogs in a harsh climate. Eventually he sheds the veneer of civilization, relying on primordial instincts and learned experience to emerge as a leader in the wild.London lived for most of a year in the Yukon collecting material for the book. The story was serialized in the Saturday Evening Post in the summer of 1903; a month later it was released in book form. The novel`s great popularity and success made a reputation for London. Much of its appeal derives from the simplicity of this tale of survival. As early as 1908 the story was adapted to film and it has since seen several more cinematic adaptations.","image":"2.jpg","genre":"adventure","created_at":null,"updated_at":null},{"id":11,"title":"The Water Dancer ","author":"Ta-Nehisi Coates","description":"Young Hiram Walker was born into bondage. When his mother was sold away, Hiram was robbed of all memory of her\u2014but was gifted with a mysterious power. Years later, when Hiram almost drowns in a river, that same power saves his life. This brush with death births an urgency in Hiram and a daring scheme: to escape from the only home he\u2019s ever known.","image":"11.jpg","genre":"detective","created_at":null,"updated_at":null},{"id":267,"title":"Little Women: 150th Anniversary Edition ","author":"Louisa May Alcott ","description":"For generations, children around the world have come of age with Louisa May Alcott`s March girls: hardworking eldest sister Meg, headstrong, impulsive Jo, timid Beth, and precocious Amy. With their father away at war, and their loving mother Marmee working to support the family, the four sisters have to rely on one another for support as they endure the hardships of wartime and poverty. We witness the sisters growing up and figuring out what role each wants to play in the world, and, along the way, join them on countless unforgettable adventures.","image":"3.jpg","genre":"classics","created_at":null,"updated_at":null},{"id":12,"title":"The Night Fire","author":"Michael Connelly","description":"Back when Harry Bosch was just a rookie homicide detective, he had an inspiring mentor who taught him to take the work personally and light the fire of relentlessness for every case. Now that mentor, John Jack Thompson, is dead, and his widow gives Bosch a murder book, one that Thompson took with him when he left the LAPD twenty years before -- the unsolved killing of a troubled young man.","image":"12.jpg","genre":"fantasy","created_at":null,"updated_at":null},{"id":268,"title":"Beloved","author":"Toni Morrison","description":"Sethe, its protagonist, was born a slave and escaped to Ohio, but eighteen years later she is still not free. She has too many memories of Sweet Home, the beautiful farm where so many hideous things happened. And Sethe\u2019s new home is haunted by the ghost of her baby, who died nameless and whose tombstone is engraved with a single word: Beloved. Filled with bitter poetry and suspense as taut as a rope, Beloved is a towering achievement.","image":"4.jpg","genre":"adventure","created_at":null,"updated_at":null},{"id":13,"title":"The Three Musketeers ","author":"Alexandre Dumas ","description":"The Three Musketeers is a novel by Alexandre Dumas. Set in the 17th century, it recounts the adventures of a young man named d`Artagnan after he leaves home to travel to Paris, to join the Musketeers of the Guard. ","image":"1.jpg","genre":"adventure","created_at":null,"updated_at":null},{"id":269,"title":"To Kill a Mockingbird ","author":"Harper Lee","description":"One of the most cherished stories of all time, To Kill a Mockingbird has been translated into more than forty languages, sold more than forty million copies worldwide, served as the basis for an enormously popular motion picture, and was voted one of the best novels of the twentieth century by librarians across the country. A gripping, heart-wrenching, and wholly remarkable tale of coming-of-age in a South poisoned by virulent prejudice, it views a world of great beauty and savage inequities through the eyes of a young girl, as her father\u2014a crusading local lawyer\u2014risks everything to defend a black man unjustly accused of a terrible crime.","image":"5.jpg","genre":"adventure","created_at":null,"updated_at":null},{"id":14,"title":"The Call of the Wild","author":"Jack London","description":"The Call of the Wild is a novel by Jack London published in 1903. The story is set in the Yukon during the 1890s Klondike Gold Rush\u2014a period in which strong sled dogs were in high demand. The novel`s central character is a dog named Buck, a domesticated dog living at a ranch in the Santa Clara Valley of California as the story opens. Stolen from his home and sold into service as sled dog in Alaska, he reverts to a wild state. Buck is forced to fight in order to dominate other dogs in a harsh climate. Eventually he sheds the veneer of civilization, relying on primordial instincts and learned experience to emerge as a leader in the wild.London lived for most of a year in the Yukon collecting material for the book. The story was serialized in the Saturday Evening Post in the summer of 1903; a month later it was released in book form. The novel`s great popularity and success made a reputation for London. Much of its appeal derives from the simplicity of this tale of survival. As early as 1908 the story was adapted to film and it has since seen several more cinematic adaptations.","image":"2.jpg","genre":"adventure","created_at":null,"updated_at":null},{"id":270,"title":"Watchmen","author":"Alan Moore","description":"Considered the greatest novel in the history of the medium, the Hugo Award-winning story chronicles the fall from grace of a group of superheroes plagued by all-too-human failings. Along the way, the concept of the superhero is dissected as an unknown assassin stalks the erstwhile heroes.","image":"6.jpg","genre":"novel","created_at":null,"updated_at":null},{"id":15,"title":"Little Women: 150th Anniversary Edition ","author":"Louisa May Alcott ","description":"For generations, children around the world have come of age with Louisa May Alcott`s March girls: hardworking eldest sister Meg, headstrong, impulsive Jo, timid Beth, and precocious Amy. With their father away at war, and their loving mother Marmee working to support the family, the four sisters have to rely on one another for support as they endure the hardships of wartime and poverty. We witness the sisters growing up and figuring out what role each wants to play in the world, and, along the way, join them on countless unforgettable adventures.","image":"3.jpg","genre":"classics","created_at":null,"updated_at":null},{"id":271,"title":"The Walking Dead: Compendium One","author":"Robert Kirkman ","description":"Introducing the first eight volumes of the fan-favorite, New York Times Best Seller series collected into one massive paperback collection! Collects The Walking Dead #1-48. This is the perfect collection for any fan of the Emmy Award-winning television series on AMC: over one thousand pages chronicling the beginning of Robert Kirkman`s Eisner Award-winning continuing story of survival horror- from Rick Grimes` waking up alone in a hospital, to him and his family seeking solace on Hershel`s farm, and the controversial introduction of Woodbury despot: The Governor. In a world ruled by the dead, we are finally forced to finally start living.","image":"7.jpg","genre":"novel","created_at":null,"updated_at":null},{"id":16,"title":"Beloved","author":"Toni Morrison","description":"Sethe, its protagonist, was born a slave and escaped to Ohio, but eighteen years later she is still not free. She has too many memories of Sweet Home, the beautiful farm where so many hideous things happened. And Sethe\u2019s new home is haunted by the ghost of her baby, who died nameless and whose tombstone is engraved with a single word: Beloved. Filled with bitter poetry and suspense as taut as a rope, Beloved is a towering achievement.","image":"4.jpg","genre":"adventure","created_at":null,"updated_at":null},{"id":272,"title":"The Boy, the Mole, the Fox and the Horse","author":"Charlie Mackesy","description":"Charlie Mackesy offers inspiration and hope in uncertain times in this beautiful book based on his famous quartet of characters. The Boy, the Mole, the Fox, and the Horse explores their unlikely friendship and the poignant, universal lessons they learn together.","image":"8.jpg","genre":"novel","created_at":null,"updated_at":null}],"first_page_url":"http:\/\/localhost:8000\/api\/books?page=1","from":1,"last_page":14,"last_page_url":"http:\/\/localhost:8000\/api\/books?page=14","next_page_url":"http:\/\/localhost:8000\/api\/books?page=2","path":"http:\/\/localhost:8000\/api\/books","per_page":33,"prev_page_url":null,"to":33,"total":432}